{
	"info": {
		"_postman_id": "11c90f3c-a88d-453e-a5ae-699b89e926d0",
		"name": "ProductCatalog",
		"schema": "https://schema.getpostman.com/json/collection/v2.1.0/collection.json"
	},
	"item": [
		{
			"name": "Add products",
			"request": {
				"method": "POST",
				"header": [
					{
						"key": "Content-Type",
						"name": "Content-Type",
						"value": "application/json",
						"type": "text"
					},
					{
						"key": "Accept",
						"value": "application/json",
						"type": "text"
					}
				],
				"body": {
					"mode": "raw",
					"raw": "[1, 2]"
				},
				"url": {
					"raw": "http://localhost:60284/shoppingcart/123/items",
					"protocol": "http",
					"host": [
						"localhost"
					],
					"port": "60284",
					"path": [
						"shoppingcart",
						"123",
						"items"
					]
				}
			},
			"response": []
		}
	]
}